sw/sw.vcd
$date
	Fri Jul 28 19:39:22 2023
$end
$version
	Icarus Verilog
$end
$timescale
	1s
$end
$scope module swtest $end
$var wire 10 ! o3 [9:0] $end
$var wire 10 " o2 [9:0] $end
$var wire 10 # o1 [9:0] $end
$var wire 10 $ o0 [9:0] $end
$var reg 1 % clk $end
$var reg 10 & i0 [9:0] $end
$var reg 10 ' i1 [9:0] $end
$var reg 10 ( i2 [9:0] $end
$var reg 10 ) i3 [9:0] $end
$var reg 1 * rst $end
$scope module sw $end
$var wire 1 % clk $end
$var wire 10 + i0 [9:0] $end
$var wire 10 , i1 [9:0] $end
$var wire 10 - i2 [9:0] $end
$var wire 10 . i3 [9:0] $end
$var wire 1 * rst $end
$var wire 4 / req3 [3:0] $end
$var wire 4 0 req2 [3:0] $end
$var wire 4 1 req1 [3:0] $end
$var wire 4 2 req0 [3:0] $end
$var wire 10 3 o3 [9:0] $end
$var wire 10 4 o2 [9:0] $end
$var wire 10 5 o1 [9:0] $end
$var wire 10 6 o0 [9:0] $end
$var wire 1 7 full3 $end
$var wire 1 8 full2 $end
$var wire 1 9 full1 $end
$var wire 1 : full0 $end
$var wire 10 ; co3 [9:0] $end
$var wire 10 < co2 [9:0] $end
$var wire 10 = co1 [9:0] $end
$var wire 10 > co0 [9:0] $end
$var wire 1 ? ack33 $end
$var wire 1 @ ack32 $end
$var wire 1 A ack31 $end
$var wire 1 B ack30 $end
$var wire 1 C ack3 $end
$var wire 1 D ack23 $end
$var wire 1 E ack22 $end
$var wire 1 F ack21 $end
$var wire 1 G ack20 $end
$var wire 1 H ack2 $end
$var wire 1 I ack13 $end
$var wire 1 J ack12 $end
$var wire 1 K ack11 $end
$var wire 1 L ack10 $end
$var wire 1 M ack1 $end
$var wire 1 N ack03 $end
$var wire 1 O ack02 $end
$var wire 1 P ack01 $end
$var wire 1 Q ack00 $end
$var wire 1 R ack0 $end
$scope module ackor0 $end
$var wire 1 R ao $end
$var wire 1 B a3 $end
$var wire 1 G a2 $end
$var wire 1 L a1 $end
$var wire 1 Q a0 $end
$upscope $end
$scope module ackor1 $end
$var wire 1 M ao $end
$var wire 1 A a3 $end
$var wire 1 F a2 $end
$var wire 1 K a1 $end
$var wire 1 P a0 $end
$upscope $end
$scope module ackor2 $end
$var wire 1 H ao $end
$var wire 1 @ a3 $end
$var wire 1 E a2 $end
$var wire 1 J a1 $end
$var wire 1 O a0 $end
$upscope $end
$scope module ackor3 $end
$var wire 1 C ao $end
$var wire 1 ? a3 $end
$var wire 1 D a2 $end
$var wire 1 I a1 $end
$var wire 1 N a0 $end
$upscope $end
$scope module arb0 $end
$var wire 1 % clk $end
$var wire 1 S req0 $end
$var wire 1 T req1 $end
$var wire 1 U req2 $end
$var wire 1 V req3 $end
$var wire 1 * rst $end
$var reg 1 Q ack0 $end
$var reg 1 P ack1 $end
$var reg 1 O ack2 $end
$var reg 1 N ack3 $end
$var reg 2 W pri [1:0] $end
$var reg 1 X rreq0 $end
$var reg 1 Y rreq1 $end
$var reg 1 Z rreq2 $end
$var reg 1 [ rreq3 $end
$upscope $end
$scope module arb1 $end
$var wire 1 % clk $end
$var wire 1 \ req0 $end
$var wire 1 ] req1 $end
$var wire 1 ^ req2 $end
$var wire 1 _ req3 $end
$var wire 1 * rst $end
$var reg 1 L ack0 $end
$var reg 1 K ack1 $end
$var reg 1 J ack2 $end
$var reg 1 I ack3 $end
$var reg 2 ` pri [1:0] $end
$var reg 1 a rreq0 $end
$var reg 1 b rreq1 $end
$var reg 1 c rreq2 $end
$var reg 1 d rreq3 $end
$upscope $end
$scope module arb2 $end
$var wire 1 % clk $end
$var wire 1 e req0 $end
$var wire 1 f req1 $end
$var wire 1 g req2 $end
$var wire 1 h req3 $end
$var wire 1 * rst $end
$var reg 1 G ack0 $end
$var reg 1 F ack1 $end
$var reg 1 E ack2 $end
$var reg 1 D ack3 $end
$var reg 2 i pri [1:0] $end
$var reg 1 j rreq0 $end
$var reg 1 k rreq1 $end
$var reg 1 l rreq2 $end
$var reg 1 m rreq3 $end
$upscope $end
$scope module arb3 $end
$var wire 1 % clk $end
$var wire 1 n req0 $end
$var wire 1 o req1 $end
$var wire 1 p req2 $end
$var wire 1 q req3 $end
$var wire 1 * rst $end
$var reg 1 B ack0 $end
$var reg 1 A ack1 $end
$var reg 1 @ ack2 $end
$var reg 1 ? ack3 $end
$var reg 2 r pri [1:0] $end
$var reg 1 s rreq0 $end
$var reg 1 t rreq1 $end
$var reg 1 u rreq2 $end
$var reg 1 v rreq3 $end
$upscope $end
$scope module cb $end
$var wire 4 w d0 [3:0] $end
$var wire 4 x d1 [3:0] $end
$var wire 4 y d2 [3:0] $end
$var wire 4 z d3 [3:0] $end
$var wire 10 { o3 [9:0] $end
$var wire 10 | o2 [9:0] $end
$var wire 10 } o1 [9:0] $end
$var wire 10 ~ o0 [9:0] $end
$var wire 10 !" i3 [9:0] $end
$var wire 10 "" i2 [9:0] $end
$var wire 10 #" i1 [9:0] $end
$var wire 10 $" i0 [9:0] $end
$scope module cbsel0 $end
$var wire 4 %" d [3:0] $end
$var wire 10 &" i3 [9:0] $end
$var wire 10 '" i2 [9:0] $end
$var wire 10 (" i1 [9:0] $end
$var wire 10 )" i0 [9:0] $end
$var reg 10 *" o [9:0] $end
$upscope $end
$scope module cbsel1 $end
$var wire 4 +" d [3:0] $end
$var wire 10 ," i3 [9:0] $end
$var wire 10 -" i2 [9:0] $end
$var wire 10 ." i1 [9:0] $end
$var wire 10 /" i0 [9:0] $end
$var reg 10 0" o [9:0] $end
$upscope $end
$scope module cbsel2 $end
$var wire 4 1" d [3:0] $end
$var wire 10 2" i3 [9:0] $end
$var wire 10 3" i2 [9:0] $end
$var wire 10 4" i1 [9:0] $end
$var wire 10 5" i0 [9:0] $end
$var reg 10 6" o [9:0] $end
$upscope $end
$scope module cbsel3 $end
$var wire 4 7" d [3:0] $end
$var wire 10 8" i3 [9:0] $end
$var wire 10 9" i2 [9:0] $end
$var wire 10 :" i1 [9:0] $end
$var wire 10 ;" i0 [9:0] $end
$var reg 10 <" o [9:0] $end
$upscope $end
$upscope $end
$scope module ib0 $end
$var wire 1 R ack $end
$var wire 1 % clk $end
$var wire 10 =" pkti [9:0] $end
$var wire 1 * rst $end
$var wire 1 >" we $end
$var wire 4 ?" reqi [3:0] $end
$var wire 4 @" req [3:0] $end
$var wire 1 A" re $end
$var wire 10 B" pkto [9:0] $end
$var wire 1 : full $end
$var wire 1 C" empty $end
$scope module fifo $end
$var wire 1 % clk $end
$var wire 10 D" in [9:0] $end
$var wire 10 E" pout [9:0] $end
$var wire 1 * rst $end
$var wire 1 >" we $end
$var wire 1 A" re $end
$var wire 4 F" headi [3:0] $end
$var reg 1 C" empty $end
$var reg 1 : full $end
$var reg 4 G" head [3:0] $end
$var reg 10 H" out [9:0] $end
$var reg 4 I" tail [3:0] $end
$upscope $end
$scope module isbm $end
$var wire 1 R ack $end
$var wire 1 % clk $end
$var wire 1 C" empty $end
$var wire 2 J" pout [1:0] $end
$var wire 1 * rst $end
$var wire 4 K" reqi [3:0] $end
$var reg 1 A" re $end
$var reg 4 L" req [3:0] $end
$var integer 32 M" nstate [31:0] $end
$var integer 32 N" state [31:0] $end
$upscope $end
$scope module mkreq $end
$var wire 1 % clk $end
$var wire 10 O" pkti [9:0] $end
$var wire 1 * rst $end
$var reg 4 P" req [3:0] $end
$var reg 4 Q" reqp [3:0] $end
$upscope $end
$scope module mkwe $end
$var wire 10 R" pkti [9:0] $end
$var reg 1 >" we $end
$upscope $end
$upscope $end
$scope module ib1 $end
$var wire 1 M ack $end
$var wire 1 % clk $end
$var wire 10 S" pkti [9:0] $end
$var wire 1 * rst $end
$var wire 1 T" we $end
$var wire 4 U" reqi [3:0] $end
$var wire 4 V" req [3:0] $end
$var wire 1 W" re $end
$var wire 10 X" pkto [9:0] $end
$var wire 1 9 full $end
$var wire 1 Y" empty $end
$scope module fifo $end
$var wire 1 % clk $end
$var wire 10 Z" in [9:0] $end
$var wire 10 [" pout [9:0] $end
$var wire 1 * rst $end
$var wire 1 T" we $end
$var wire 1 W" re $end
$var wire 4 \" headi [3:0] $end
$var reg 1 Y" empty $end
$var reg 1 9 full $end
$var reg 4 ]" head [3:0] $end
$var reg 10 ^" out [9:0] $end
$var reg 4 _" tail [3:0] $end
$upscope $end
$scope module isbm $end
$var wire 1 M ack $end
$var wire 1 % clk $end
$var wire 1 Y" empty $end
$var wire 2 `" pout [1:0] $end
$var wire 1 * rst $end
$var wire 4 a" reqi [3:0] $end
$var reg 1 W" re $end
$var reg 4 b" req [3:0] $end
$var integer 32 c" nstate [31:0] $end
$var integer 32 d" state [31:0] $end
$upscope $end
$scope module mkreq $end
$var wire 1 % clk $end
$var wire 10 e" pkti [9:0] $end
$var wire 1 * rst $end
$var reg 4 f" req [3:0] $end
$var reg 4 g" reqp [3:0] $end
$upscope $end
$scope module mkwe $end
$var wire 10 h" pkti [9:0] $end
$var reg 1 T" we $end
$upscope $end
$upscope $end
$scope module ib2 $end
$var wire 1 H ack $end
$var wire 1 % clk $end
$var wire 10 i" pkti [9:0] $end
$var wire 1 * rst $end
$var wire 1 j" we $end
$var wire 4 k" reqi [3:0] $end
$var wire 4 l" req [3:0] $end
$var wire 1 m" re $end
$var wire 10 n" pkto [9:0] $end
$var wire 1 8 full $end
$var wire 1 o" empty $end
$scope module fifo $end
$var wire 1 % clk $end
$var wire 10 p" in [9:0] $end
$var wire 10 q" pout [9:0] $end
$var wire 1 * rst $end
$var wire 1 j" we $end
$var wire 1 m" re $end
$var wire 4 r" headi [3:0] $end
$var reg 1 o" empty $end
$var reg 1 8 full $end
$var reg 4 s" head [3:0] $end
$var reg 10 t" out [9:0] $end
$var reg 4 u" tail [3:0] $end
$upscope $end
$scope module isbm $end
$var wire 1 H ack $end
$var wire 1 % clk $end
$var wire 1 o" empty $end
$var wire 2 v" pout [1:0] $end
$var wire 1 * rst $end
$var wire 4 w" reqi [3:0] $end
$var reg 1 m" re $end
$var reg 4 x" req [3:0] $end
$var integer 32 y" nstate [31:0] $end
$var integer 32 z" state [31:0] $end
$upscope $end
$scope module mkreq $end
$var wire 1 % clk $end
$var wire 10 {" pkti [9:0] $end
$var wire 1 * rst $end
$var reg 4 |" req [3:0] $end
$var reg 4 }" reqp [3:0] $end
$upscope $end
$scope module mkwe $end
$var wire 10 ~" pkti [9:0] $end
$var reg 1 j" we $end
$upscope $end
$upscope $end
$scope module ib3 $end
$var wire 1 C ack $end
$var wire 1 % clk $end
$var wire 10 !# pkti [9:0] $end
$var wire 1 * rst $end
$var wire 1 "# we $end
$var wire 4 ## reqi [3:0] $end
$var wire 4 $# req [3:0] $end
$var wire 1 %# re $end
$var wire 10 &# pkto [9:0] $end
$var wire 1 7 full $end
$var wire 1 '# empty $end
$scope module fifo $end
$var wire 1 % clk $end
$var wire 10 (# in [9:0] $end
$var wire 10 )# pout [9:0] $end
$var wire 1 * rst $end
$var wire 1 "# we $end
$var wire 1 %# re $end
$var wire 4 *# headi [3:0] $end
$var reg 1 '# empty $end
$var reg 1 7 full $end
$var reg 4 +# head [3:0] $end
$var reg 10 ,# out [9:0] $end
$var reg 4 -# tail [3:0] $end
$upscope $end
$scope module isbm $end
$var wire 1 C ack $end
$var wire 1 % clk $end
$var wire 1 '# empty $end
$var wire 2 .# pout [1:0] $end
$var wire 1 * rst $end
$var wire 4 /# reqi [3:0] $end
$var reg 1 %# re $end
$var reg 4 0# req [3:0] $end
$var integer 32 1# nstate [31:0] $end
$var integer 32 2# state [31:0] $end
$upscope $end
$scope module mkreq $end
$var wire 1 % clk $end
$var wire 10 3# pkti [9:0] $end
$var wire 1 * rst $end
$var reg 4 4# req [3:0] $end
$var reg 4 5# reqp [3:0] $end
$upscope $end
$scope module mkwe $end
$var wire 10 6# pkti [9:0] $end
$var reg 1 "# we $end
$upscope $end
$upscope $end
$upscope $end
$upscope $end
$enddefinitions $end
#0
$dumpvars
b0 6#
bx 5#
b0 4#
bx 3#
b0 2#
b0 1#
b0 0#
b0 /#
bx .#
bx -#
bx ,#
bx +#
bx *#
bx )#
b0 (#
0'#
bx &#
0%#
b0 $#
b0 ##
0"#
b0 !#
b0 ~"
bx }"
b0 |"
bx {"
b0 z"
b0 y"
b0 x"
b0 w"
bx v"
bx u"
bx t"
bx s"
bx r"
bx q"
b0 p"
0o"
bx n"
0m"
b0 l"
b0 k"
0j"
b0 i"
b0 h"
bx g"
b0 f"
bx e"
b0 d"
b0 c"
b0 b"
b0 a"
bx `"
bx _"
bx ^"
bx ]"
bx \"
bx ["
b0 Z"
0Y"
bx X"
0W"
b0 V"
b0 U"
0T"
b0 S"
b0 R"
bx Q"
b0 P"
bx O"
b0 N"
b0 M"
b0 L"
b0 K"
bx J"
bx I"
bx H"
bx G"
bx F"
bx E"
b0 D"
0C"
bx B"
0A"
b0 @"
b0 ?"
0>"
b0 ="
b0 <"
bx ;"
bx :"
bx 9"
bx 8"
bx 7"
b0 6"
bx 5"
bx 4"
bx 3"
bx 2"
bx 1"
b0 0"
bx /"
bx ."
bx -"
bx ,"
bx +"
b0 *"
bx )"
bx ("
bx '"
bx &"
bx %"
bx $"
bx #"
bx ""
bx !"
b0 ~
b0 }
b0 |
b0 {
bx z
bx y
bx x
bx w
0v
0u
0t
0s
b0 r
0q
0p
0o
0n
0m
0l
0k
0j
b0 i
0h
0g
0f
0e
0d
0c
0b
0a
b0 `
0_
0^
0]
0\
0[
0Z
0Y
0X
b0 W
0V
0U
0T
0S
xR
xQ
xP
xO
xN
xM
xL
xK
xJ
xI
xH
xG
xF
xE
xD
xC
xB
xA
x@
x?
bx >
bx =
bx <
bx ;
0:
09
08
07
b0 6
b0 5
b0 4
b0 3
b0 2
b0 1
b0 0
b0 /
b0 .
b0 -
b0 ,
b0 +
1*
b0 )
b0 (
b0 '
b0 &
0%
b0 $
b0 #
b0 "
b0 !
$end
#5
b0 J"
b1 Q"
b0 `"
b1 g"
b0 v"
b1 }"
b0 .#
b1 5#
b0 >
b0 $"
b0 )"
b0 /"
b0 5"
b0 ;"
b0 B"
b0 H"
b0 O"
1C"
b0 =
b0 #"
b0 ("
b0 ."
b0 4"
b0 :"
b0 X"
b0 ^"
b0 e"
1Y"
b0 <
b0 ""
b0 '"
b0 -"
b0 3"
b0 9"
b0 n"
b0 t"
b0 {"
1o"
b0 ;
b0 !"
b0 &"
b0 ,"
b0 2"
b0 8"
b0 &#
b0 ,#
b0 3#
1'#
b0 I"
b1 F"
b0 G"
b0 _"
b1 \"
b0 ]"
b0 u"
b1 r"
b0 s"
b0 -#
b1 *#
b0 +#
0C
0H
0M
0R
0N
0O
0P
b0 w
b0 %"
0Q
0I
0J
0K
b0 x
b0 +"
0L
0D
0E
0F
b0 y
b0 1"
0G
0?
0@
0A
b0 z
b0 7"
0B
1%
#10
0%
0*
#15
1%
#20
1>"
0%
b1000000000 &
b1000000000 +
b1000000000 ="
b1000000000 D"
b1000000000 R"
#25
b1 M"
b10 J"
b1 Q"
b1000000000 >
b1000000000 $"
b1000000000 )"
b1000000000 /"
b1000000000 5"
b1000000000 ;"
b1000000000 B"
b1000000000 H"
b1000000000 O"
0C"
b1000000000 E"
b10 F"
b1 G"
1%
#30
0%
b100000000 &
b100000000 +
b100000000 ="
b100000000 D"
b100000000 R"
#35
1S
b1 2
b1 @"
b1 L"
b1 N"
b11 F"
b10 G"
b1 ?"
b1 K"
b1 P"
1%
#40
0%
b100000001 &
b100000001 +
b100000001 ="
b100000001 D"
b100000001 R"
#45
b100 F"
b11 G"
1X
1A"
b10 M"
1R
b1000000000 $
b1000000000 6
b1000000000 ~
b1000000000 *"
b1 w
b1 %"
1Q
1%
#50
0%
b1100000010 &
b1100000010 +
b1100000010 ="
b1100000010 D"
b1100000010 R"
#55
b1 J"
b100000000 $
b100000000 6
b100000000 ~
b100000000 *"
b1 Q"
b100000000 >
b100000000 $"
b100000000 )"
b100000000 /"
b100000000 5"
b100000000 ;"
b100000000 B"
b100000000 H"
b100000000 O"
b10 N"
b100000000 E"
b1 I"
b101 F"
b100 G"
1A"
b10 M"
b1 w
b1 %"
1Q
1%
#60
0>"
0%
b0 &
b0 +
b0 ="
b0 D"
b0 R"
#65
b100000001 $
b100000001 6
b100000001 ~
b100000001 *"
b10 Q"
b100000001 >
b100000001 $"
b100000001 )"
b100000001 /"
b100000001 5"
b100000001 ;"
b100000001 B"
b100000001 H"
b100000001 O"
b100000001 E"
b10 I"
1A"
b1 w
b1 %"
1Q
1%
#70
1>"
0%
b1010010001 &
b1010010001 +
b1010010001 ="
b1010010001 D"
b1010010001 R"
#75
0S
b0 2
b0 @"
b0 L"
b0 M"
b11 J"
b1100000010 $
b1100000010 6
b1100000010 ~
b1100000010 *"
b100 Q"
b1100000010 >
b1100000010 $"
b1100000010 )"
b1100000010 /"
b1100000010 5"
b1100000010 ;"
b1100000010 B"
b1100000010 H"
b1100000010 O"
b1100000010 E"
b11 I"
b110 F"
b101 G"
1A"
b1 w
b1 %"
1Q
1%
#80
0%
b110010000 &
b110010000 +
b110010000 ="
b110010000 D"
b110010000 R"
#85
b10 J"
b10 Q"
b1010010001 >
b1010010001 $"
b1010010001 )"
b1010010001 /"
b1010010001 5"
b1010010001 ;"
b1010010001 B"
b1010010001 H"
b1010010001 O"
b1010010001 E"
b100 I"
b111 F"
b110 G"
b0 N"
b1 W
0X
0R
0A"
b0 2
b0 @"
b0 L"
b1 M"
b0 $
b0 6
b0 ~
b0 *"
b0 w
b0 %"
0Q
1%
#90
0%
b110010001 &
b110010001 +
b110010001 ="
b110010001 D"
b110010001 R"
#95
1\
b10 2
b10 @"
b10 L"
b1 N"
b1000 F"
b111 G"
b10 ?"
b10 K"
b10 P"
1%
#100
0%
b1110010010 &
b1110010010 +
b1110010010 ="
b1110010010 D"
b1110010010 R"
#105
b1001 F"
b1000 G"
1a
1A"
b10 M"
1R
b1010010001 #
b1010010001 5
b1010010001 }
b1010010001 0"
b1 x
b1 +"
1L
1%
#110
0>"
0%
b0 &
b0 +
b0 ="
b0 D"
b0 R"
#115
b1 J"
b110010000 #
b110010000 5
b110010000 }
b110010000 0"
b1 Q"
b110010000 >
b110010000 $"
b110010000 )"
b110010000 /"
b110010000 5"
b110010000 ;"
b110010000 B"
b110010000 H"
b110010000 O"
b10 N"
b110010000 E"
b101 I"
1A"
b10 M"
b1 x
b1 +"
1L
1%
#120
1>"
0%
b1000000000 &
b1000000000 +
b1000000000 ="
b1000000000 D"
b1000000000 R"
#125
b110010001 #
b110010001 5
b110010001 }
b110010001 0"
b10 Q"
b110010001 >
b110010001 $"
b110010001 )"
b110010001 /"
b110010001 5"
b110010001 ;"
b110010001 B"
b110010001 H"
b110010001 O"
b110010001 E"
b110 I"
b1010 F"
b1001 G"
1A"
b1 x
b1 +"
1L
1%
#130
0%
b1100001111 &
b1100001111 +
b1100001111 ="
b1100001111 D"
b1100001111 R"
#135
0\
b0 2
b0 @"
b0 L"
b0 M"
b11 J"
b1110010010 #
b1110010010 5
b1110010010 }
b1110010010 0"
b100 Q"
b1110010010 >
b1110010010 $"
b1110010010 )"
b1110010010 /"
b1110010010 5"
b1110010010 ;"
b1110010010 B"
b1110010010 H"
b1110010010 O"
b1110010010 E"
b111 I"
b1011 F"
b1010 G"
1A"
b1 x
b1 +"
1L
1%
#140
0%
b1000000001 &
b1000000001 +
b1000000001 ="
b1000000001 D"
b1000000001 R"
#145
b10 J"
b1 Q"
b1000000000 >
b1000000000 $"
b1000000000 )"
b1000000000 /"
b1000000000 5"
b1000000000 ;"
b1000000000 B"
b1000000000 H"
b1000000000 O"
b1000000000 E"
b1000 I"
b1100 F"
b1011 G"
b0 N"
b1 `
0a
0R
0A"
b0 2
b0 @"
b0 L"
b1 M"
b0 #
b0 5
b0 }
b0 0"
b0 x
b0 +"
0L
1%
#150
0%
b1100001111 &
b1100001111 +
b1100001111 ="
b1100001111 D"
b1100001111 R"
#155
1S
b1 2
b1 @"
b1 L"
b1 N"
b1101 F"
b1100 G"
b1 ?"
b1 K"
b1 P"
1%
#160
0%
b1000000010 &
b1000000010 +
b1000000010 ="
b1000000010 D"
b1000000010 R"
#165
b1110 F"
b1101 G"
1X
1A"
b10 M"
1R
b1000000000 $
b1000000000 6
b1000000000 ~
b1000000000 *"
b1 w
b1 %"
1Q
1%
#170
0%
b1100001111 &
b1100001111 +
b1100001111 ="
b1100001111 D"
b1100001111 R"
#175
0S
b0 2
b0 @"
b0 L"
b11 J"
b1100001111 $
b1100001111 6
b1100001111 ~
b1100001111 *"
b1000 Q"
b1100001111 >
b1100001111 $"
b1100001111 )"
b1100001111 /"
b1100001111 5"
b1100001111 ;"
b1100001111 B"
b1100001111 H"
b1100001111 O"
b10 N"
b1100001111 E"
b1001 I"
b1111 F"
b1110 G"
1A"
b0 M"
b1 w
b1 %"
1Q
1%
#180
0%
b1000000011 &
b1000000011 +
b1000000011 ="
b1000000011 D"
b1000000011 R"
#185
b10 J"
b10 Q"
b1000000001 >
b1000000001 $"
b1000000001 )"
b1000000001 /"
b1000000001 5"
b1000000001 ;"
b1000000001 B"
b1000000001 H"
b1000000001 O"
b1000000001 E"
b1010 I"
b0 F"
b1111 G"
b0 N"
b10 W
0X
0R
0A"
b0 2
b0 @"
b0 L"
b1 M"
b0 $
b0 6
b0 ~
b0 *"
b0 w
b0 %"
0Q
1%
#190
0%
b1100001111 &
b1100001111 +
b1100001111 ="
b1100001111 D"
b1100001111 R"
#195
1\
b10 2
b10 @"
b10 L"
b1 N"
b1 F"
b0 G"
b10 ?"
b10 K"
b10 P"
1%
#200
0>"
0%
b0 &
b0 +
b0 ="
b0 D"
b0 R"
#205
1a
1A"
b10 M"
1R
b1000000001 #
b1000000001 5
b1000000001 }
b1000000001 0"
b1 x
b1 +"
1L
1%
#210
1T"
0%
b1000010000 '
b1000010000 ,
b1000010000 S"
b1000010000 Z"
b1000010000 h"
#215
b1 c"
0\
b10 `"
b1 g"
b0 2
b0 @"
b0 L"
b1000010000 =
b1000010000 #"
b1000010000 ("
b1000010000 ."
b1000010000 4"
b1000010000 :"
b1000010000 X"
b1000010000 ^"
b1000010000 e"
b11 J"
b1100001111 #
b1100001111 5
b1100001111 }
b1100001111 0"
b1000 Q"
0Y"
b1100001111 >
b1100001111 $"
b1100001111 )"
b1100001111 /"
b1100001111 5"
b1100001111 ;"
b1100001111 B"
b1100001111 H"
b1100001111 O"
b10 \"
b1 ]"
b1000010000 ["
b10 N"
b1100001111 E"
b1011 I"
1A"
b0 M"
b1 x
b1 +"
1L
1%
#220
0%
b1100011111 '
b1100011111 ,
b1100011111 S"
b1100011111 Z"
b1100011111 h"
#225
b10 J"
b100 Q"
1T
b1000000010 >
b1000000010 $"
b1000000010 )"
b1000000010 /"
b1000000010 5"
b1000000010 ;"
b1000000010 B"
b1000000010 H"
b1000000010 O"
b1 1
b1 V"
b1 b"
b1000000010 E"
b1100 I"
b0 N"
b11 \"
b10 ]"
b1 d"
b10 `
0a
b1 U"
b1 a"
b1 f"
0R
0A"
b0 2
b0 @"
b0 L"
b1 M"
b1 c"
b0 #
b0 5
b0 }
b0 0"
b0 x
b0 +"
0L
1%
#230
0%
b1000010001 '
b1000010001 ,
b1000010001 S"
b1000010001 Z"
b1000010001 h"
#235
1e
b100 \"
b11 ]"
b1 N"
b100 ?"
b100 K"
b100 P"
1Y
1W"
b10 c"
1M
b100 2
b100 @"
b100 L"
b1 M"
b1000010000 $
b1000010000 6
b1000010000 ~
b1000010000 *"
b10 w
b10 %"
1P
1%
#240
0%
b1100011111 '
b1100011111 ,
b1100011111 S"
b1100011111 Z"
b1100011111 h"
#245
0T
b0 1
b0 V"
b0 b"
b11 `"
b1100011111 $
b1100011111 6
b1100011111 ~
b1100011111 *"
b1000 g"
b1100011111 =
b1100011111 #"
b1100011111 ("
b1100011111 ."
b1100011111 4"
b1100011111 :"
b1100011111 X"
b1100011111 ^"
b1100011111 e"
b1100011111 ["
b1 _"
b101 \"
b100 ]"
b10 d"
1j
1A"
b10 M"
1R
1W"
b0 c"
b1000000010 "
b1000000010 4
b1000000010 |
b1000000010 6"
b10 w
b10 %"
1P
b1 y
b1 1"
1G
1%
#250
0%
b1000010010 '
b1000010010 ,
b1000010010 S"
b1000010010 Z"
b1000010010 h"
#255
0e
b10 `"
b0 2
b0 @"
b0 L"
b10 g"
b11 J"
b1100001111 "
b1100001111 4
b1100001111 |
b1100001111 6"
b1000 Q"
b1000010001 =
b1000010001 #"
b1000010001 ("
b1000010001 ."
b1000010001 4"
b1000010001 :"
b1000010001 X"
b1000010001 ^"
b1000010001 e"
b1100001111 >
b1100001111 $"
b1100001111 )"
b1100001111 /"
b1100001111 5"
b1100001111 ;"
b1100001111 B"
b1100001111 H"
b1100001111 O"
b0 d"
b1000010001 ["
b10 _"
b110 \"
b101 ]"
b10 N"
b1100001111 E"
b1101 I"
0Y
b11 W
0M
1A"
b0 M"
0W"
b0 1
b0 V"
b0 b"
b1 c"
b0 $
b0 6
b0 ~
b0 *"
b1 y
b1 1"
1G
b0 w
b0 %"
0P
1%
#260
0%
b1100011111 '
b1100011111 ,
b1100011111 S"
b1100011111 Z"
b1100011111 h"
#265
b10 J"
b1000 Q"
1]
b1000000011 >
b1000000011 $"
b1000000011 )"
b1000000011 /"
b1000000011 5"
b1000000011 ;"
b1000000011 B"
b1000000011 H"
b1000000011 O"
b1000000011 E"
b1110 I"
b0 N"
b111 \"
b110 ]"
b1 d"
b1 i
0j
b10 U"
b10 a"
b10 f"
0R
0A"
b0 2
b0 @"
b0 L"
b1 M"
b10 1
b10 V"
b10 b"
b1 c"
b0 "
b0 4
b0 |
b0 6"
b0 y
b0 1"
0G
1%
#270
0%
b1000010011 '
b1000010011 ,
b1000010011 S"
b1000010011 Z"
b1000010011 h"
#275
1n
b1000 \"
b111 ]"
b1 N"
b1000 ?"
b1000 K"
b1000 P"
1b
1W"
b10 c"
1M
b1000 2
b1000 @"
b1000 L"
b1 M"
b1000010001 #
b1000010001 5
b1000010001 }
b1000010001 0"
b10 x
b10 +"
1K
1%
#280
0%
b1100011111 '
b1100011111 ,
b1100011111 S"
b1100011111 Z"
b1100011111 h"
#285
0]
b0 1
b0 V"
b0 b"
b11 `"
b1100011111 #
b1100011111 5
b1100011111 }
b1100011111 0"
b1000 g"
b1100011111 =
b1100011111 #"
b1100011111 ("
b1100011111 ."
b1100011111 4"
b1100011111 :"
b1100011111 X"
b1100011111 ^"
b1100011111 e"
b1100011111 ["
b11 _"
b1001 \"
b1000 ]"
b10 d"
1s
1A"
b10 M"
1R
1W"
b0 c"
b1000000011 !
b1000000011 3
b1000000011 {
b1000000011 <"
b10 x
b10 +"
1K
b1 z
b1 7"
1B
1%
#290
0T"
0%
b0 '
b0 ,
b0 S"
b0 Z"
b0 h"
#295
0n
b10 `"
b0 2
b0 @"
b0 L"
b100 g"
b11 J"
b1100001111 !
b1100001111 3
b1100001111 {
b1100001111 <"
b1000 Q"
b1000010010 =
b1000010010 #"
b1000010010 ("
b1000010010 ."
b1000010010 4"
b1000010010 :"
b1000010010 X"
b1000010010 ^"
b1000010010 e"
b1100001111 >
b1100001111 $"
b1100001111 )"
b1100001111 /"
b1100001111 5"
b1100001111 ;"
b1100001111 B"
b1100001111 H"
b1100001111 O"
b0 d"
b1000010010 ["
b100 _"
b10 N"
b1100001111 E"
b1111 I"
0b
b11 `
0M
1A"
b0 M"
0W"
b0 1
b0 V"
b0 b"
b1 c"
b0 #
b0 5
b0 }
b0 0"
b1 z
b1 7"
1B
b0 x
b0 +"
0K
1%
#300
1j"
0%
b1000100000 (
b1000100000 -
b1000100000 i"
b1000100000 p"
b1000100000 ~"
#305
b1 y"
b10 v"
b1 }"
b0 J"
b1 Q"
1f
b1000100000 <
b1000100000 ""
b1000100000 '"
b1000100000 -"
b1000100000 3"
b1000100000 9"
b1000100000 n"
b1000100000 t"
b1000100000 {"
0o"
b0 >
b0 $"
b0 )"
b0 /"
b0 5"
b0 ;"
b0 B"
b0 H"
b0 O"
1C"
b1000000000 E"
b0 I"
b0 N"
b1 d"
b1000100000 q"
b10 r"
b1 s"
b1 r
0s
b100 U"
b100 a"
b100 f"
0R
0A"
b0 2
b0 @"
b0 L"
b0 M"
b100 1
b100 V"
b100 b"
b1 c"
b0 !
b0 3
b0 {
b0 <"
b0 z
b0 7"
0B
1%
#310
0%
b1100101111 (
b1100101111 -
b1100101111 i"
b1100101111 p"
b1100101111 ~"
#315
1U
b1 0
b1 l"
b1 x"
b1 z"
b11 r"
b10 s"
b1 k"
b1 w"
b1 |"
1k
1W"
b10 c"
1M
b0 2
b0 @"
b0 L"
b1 y"
b1000010010 "
b1000010010 4
b1000010010 |
b1000010010 6"
b10 y
b10 1"
1F
1%
#320
0%
b1000100001 (
b1000100001 -
b1000100001 i"
b1000100001 p"
b1000100001 ~"
#325
0f
b0 1
b0 V"
b0 b"
b11 `"
b1100011111 "
b1100011111 4
b1100011111 |
b1100011111 6"
b1000 g"
b1100011111 =
b1100011111 #"
b1100011111 ("
b1100011111 ."
b1100011111 4"
b1100011111 :"
b1100011111 X"
b1100011111 ^"
b1100011111 e"
b1100011111 ["
b101 _"
b10 d"
b100 r"
b11 s"
1Z
1m"
b10 y"
1H
b0 2
b0 @"
b0 L"
1W"
b0 c"
b1000100000 $
b1000100000 6
b1000100000 ~
b1000100000 *"
b100 w
b100 %"
1O
b10 y
b10 1"
1F
1%
#330
0%
b1100101111 (
b1100101111 -
b1100101111 i"
b1100101111 p"
b1100101111 ~"
